{
    "potential": [
        {
            "type": "inverse_power", 
            "parameters": {
                "exponent": 12, 
                "sigma": [[1.0, 1.2], [1.2, 1.4]], 
                "epsilon": [[1.0, 1.0], [1.0, 1.0]]
            }
        }
    ], 
    "cutoff": [
        {
            "type": "cut_shift", 
            "parameters": {
                "rcut": [[2.5, 2.5], [2.5, 2.5]]
            }
        }
    ], 
    "metadata": {
        "name": "bernu_hiwatari_hansen_pastore", 
        "doi": "10.1103/PhysRevA.36.4891", 
        "reference": "Phys. Rev. A 36, 4891 (1987)", 
        "notes": "The actual cutoff was not reported in the original paper"
    }
}