{
    "potential": [
        {
            "type": "lennard_jones", 
            "parameters": {
                "epsilon": [[1.0]], 
                "sigma": [[1.0]]
            }
        }
    ], 
    "cutoff": [
        {
            "type": "cut_shift", 
            "parameters": {
                "rcut": [[2.5]]
            }
        }
    ], 
    "metadata": {
        "name": "lennard_jones", 
        "doi": "10.1098/rspa.1924.0082", 
        "reference": "Proc. R. Soc. Lond. A, 106, 463 (1924)", 
        "notes": ""
    }
}
