{
    "potential_energy_per_particle": 0.0,
    "number_of_particles": 300,
    "density": 1.655,
    "temperature": 0.31,
    "md5_hash": "488db481cdac35e599922a26129c3e35",
    "model": "coslovich_pastore",
    "name": "coslovich_pastore-488db481cdac35e599922a26129c3e35.xyz",
    "format": "xyz"
}